medium_nurnberg

(
  node(49.3242,11.2926,49.5911,12.3555);
  <;
  >;
);
out;

coburg

(
  node(50.1102,10.4974,50.3980,11.5603);
  <;
  >;
);
out;

coburg small
(
  node(50.1102,10.4974,50.3980,11.5603);
  <;
);
out;

uelzen

(
  node(52.8192,10.3738,53.1072,11.4371);
  <;
);
out;

bielefeld

(
  node(51.7442,8.9346,52.0322,9.9977);
  <;
);
out;

