start_node,target_node,charging_stations,time_insert_start,time_insert_target,time_contracted_graph,time_state_graph,run_id
6867796369,672963198,40,12.955104683000172,10.205668943999626,140.1607599659983,0.18398453400004655,0
6984902855,271944272,40,12.732714087000204,5.061091741999917,140.1607599659983,0.18398453400004655,0
2587783575,560896537,40,9.292561778998788,11.549682683000356,140.1607599659983,0.18398453400004655,0
2911858029,2622631691,40,6.115564949001055,7.677401269000256,140.1607599659983,0.18398453400004655,0
3475065841,3474468333,40,5.325162246999753,7.741716004999034,140.1607599659983,0.18398453400004655,0
905586647,6110178259,40,7.828610402000777,10.463616908000404,140.1607599659983,0.18398453400004655,0
2314204240,5468908187,40,8.459716568999283,11.40374203600004,140.1607599659983,0.18398453400004655,0
4746840240,4422443231,40,10.146758577000583,5.25402861099974,140.1607599659983,0.18398453400004655,0
411607693,261055801,40,7.1717634279993945,9.392581924999831,140.1607599659983,0.18398453400004655,0
6261591401,679013075,40,12.63717909299885,9.4494178799996,140.1607599659983,0.18398453400004655,0
2961605297,30569258,40,10.253473173999737,5.24430664799911,140.1607599659983,0.18398453400004655,0
1097814215,6068686188,40,6.378111496998827,12.8635308790017,140.1607599659983,0.18398453400004655,0
3669256474,587616913,40,0.0028441979993658606,5.027491890999954,140.1607599659983,0.18398453400004655,0
410183828,196257955,40,12.696157943999424,11.957521891999932,140.1607599659983,0.18398453400004655,0
909410613,3837432067,40,8.654520983000111,14.59592560999954,140.1607599659983,0.18398453400004655,0
3144413468,663116612,40,0.0009656029997131554,6.220165374001226,140.1607599659983,0.18398453400004655,0
1324751436,248755546,40,11.526627982000718,9.696035992999896,140.1607599659983,0.18398453400004655,0
374574614,4421137085,40,9.502519351999581,4.611170117999791,140.1607599659983,0.18398453400004655,0
3736025610,370591402,40,5.721029505000843,10.314690856999732,140.1607599659983,0.18398453400004655,0
630455203,6841701238,40,5.060310901000776,4.377914541000791,140.1607599659983,0.18398453400004655,0
30569265,247734587,40,4.797025932000906,5.905935041000703,140.1607599659983,0.18398453400004655,0
5894020681,3822371612,40,7.861442989000352,5.7075722250010585,140.1607599659983,0.18398453400004655,0
308448538,337165067,40,8.716903108999759,8.162739062001492,140.1607599659983,0.18398453400004655,0
258869578,2083928106,40,4.730953709999085,7.03982413400081,140.1607599659983,0.18398453400004655,0
4081013204,315542260,40,9.902365099000235,10.594915677000245,140.1607599659983,0.18398453400004655,0
820988355,3075286068,40,6.852386964999823,9.097519020000618,140.1607599659983,0.18398453400004655,0
2393661266,287954506,40,0.0057892340009857435,7.715653575000033,140.1607599659983,0.18398453400004655,0
3175871265,560895405,40,9.096570317000442,9.17964015600046,140.1607599659983,0.18398453400004655,0
355317544,303696723,40,4.281383333998747,5.624600033999741,140.1607599659983,0.18398453400004655,0
1176936272,29926066,40,7.878014025998709,9.781024120999064,140.1607599659983,0.18398453400004655,0
4078628926,3831286959,40,8.242169904999173,11.535824314998536,140.1607599659983,0.18398453400004655,0
372823576,6110178354,40,9.090736395000931,10.03994255500038,140.1607599659983,0.18398453400004655,0
458836240,388148933,40,4.505665935001161,12.059871360001125,140.1607599659983,0.18398453400004655,0
267656443,3029930559,40,11.139641278999989,8.992048161000639,140.1607599659983,0.18398453400004655,0
267734695,679032184,40,8.827551790000143,9.066355966999254,140.1607599659983,0.18398453400004655,0
30585026,4580734748,40,4.191346487999908,8.453328911000426,140.1607599659983,0.18398453400004655,0
5564730620,276097614,40,9.31952456900035,5.733112173000336,140.1607599659983,0.18398453400004655,0
2668533228,6109813992,40,6.185481623000669,13.26190660300017,140.1607599659983,0.18398453400004655,0
1419936486,298148969,40,8.660197941999286,11.040738824000073,140.1607599659983,0.18398453400004655,0
276630891,1089310539,40,9.000319528000546,7.655191222000212,140.1607599659983,0.18398453400004655,0
4319939646,6795726229,40,10.05000653100069,9.374556462000328,140.1607599659983,0.18398453400004655,0
334398334,6261905676,40,10.397995936998996,9.231186704999345,140.1607599659983,0.18398453400004655,0
866359483,4339077682,40,8.883134495999911,11.536540552999213,140.1607599659983,0.18398453400004655,0
1262321728,276257153,40,5.530432059000304,7.897769402001359,140.1607599659983,0.18398453400004655,0
370289104,3112859252,40,7.639903541999956,8.745512344999952,140.1607599659983,0.18398453400004655,0
481156264,2606685298,40,8.369931457000348,12.570192979999774,140.1607599659983,0.18398453400004655,0
2460140866,1766428021,40,5.399017235999054,4.491426827000396,140.1607599659983,0.18398453400004655,0
306193468,3709294181,40,5.995646842999122,7.431205614000646,140.1607599659983,0.18398453400004655,0
2653522408,1135365066,40,6.6090566820003005,9.507176080000136,140.1607599659983,0.18398453400004655,0
533210264,2677048208,40,11.523430508999809,5.311196055999972,140.1607599659983,0.18398453400004655,0
338518104,2640836274,40,10.119366926999646,9.56712447100108,140.1607599659983,0.18398453400004655,0
2552720408,1386672326,40,4.7747829939999065,8.447730366000542,140.1607599659983,0.18398453400004655,0
6535932471,3148871589,40,7.508506075000696,4.5115599439996,140.1607599659983,0.18398453400004655,0
290178450,4936482966,40,10.168675179000275,8.80483155299953,140.1607599659983,0.18398453400004655,0
1906624561,289801514,40,8.233877541000766,4.543179999000131,140.1607599659983,0.18398453400004655,0
4766734851,290205963,40,9.457663380999293,4.515781224999955,140.1607599659983,0.18398453400004655,0
2677570781,4746777466,40,4.735638097999981,7.988821911001651,140.1607599659983,0.18398453400004655,0
6478101124,2255742635,40,5.27430775799985,4.6840531720008585,140.1607599659983,0.18398453400004655,0
347975231,2670356660,40,9.11551264300033,4.1039653129992075,140.1607599659983,0.18398453400004655,0
860712223,469648796,40,5.378163968000081,8.906093995001356,140.1607599659983,0.18398453400004655,0
3148900107,281082979,40,4.9927111090000835,12.142213125998751,140.1607599659983,0.18398453400004655,0
6841701252,449725589,40,3.934980601999996,8.252111947998856,140.1607599659983,0.18398453400004655,0
4726038219,3811635204,40,8.617505123000228,15.13911056300094,140.1607599659983,0.18398453400004655,0
590418277,415409821,40,8.325590755999656,15.380717223999454,140.1607599659983,0.18398453400004655,0
1406489226,331277080,40,0.0009441050005989382,6.1366931249995105,140.1607599659983,0.18398453400004655,0
355305789,454347887,40,7.232434256000488,12.300413331999152,140.1607599659983,0.18398453400004655,0
1223570913,553081863,40,10.293949711000096,8.14673458100151,140.1607599659983,0.18398453400004655,0
393978349,422447940,40,4.368727442999443,10.073027231999731,140.1607599659983,0.18398453400004655,0
1517665014,401548746,40,4.150463245001447,8.005803719999676,140.1607599659983,0.18398453400004655,0
353909850,3976490181,40,8.54616603300019,5.509261572999094,140.1607599659983,0.18398453400004655,0
372823745,1057057574,40,9.174522605000675,8.594830211999579,140.1607599659983,0.18398453400004655,0
2612228460,2704093625,40,10.229977626000618,10.461565215999144,140.1607599659983,0.18398453400004655,0
3580930305,25281330,40,11.248351096000988,12.203430319999825,140.1607599659983,0.18398453400004655,0
1252251410,4442807834,40,11.270530403999146,12.56499921700015,140.1607599659983,0.18398453400004655,0
5679639969,5564730619,40,10.11274642799981,10.635124462000022,140.1607599659983,0.18398453400004655,0
3474468370,1517665572,40,9.919471556000644,4.5487870709985145,140.1607599659983,0.18398453400004655,0
907177102,6849580169,40,8.565394879999076,9.513082995999866,140.1607599659983,0.18398453400004655,0
820987442,317012761,40,9.053542876999927,10.055073016999813,140.1607599659983,0.18398453400004655,0
271763042,2894493190,40,10.463056962998962,8.63024805600071,140.1607599659983,0.18398453400004655,0
33507824,2587783633,40,10.155896918999133,10.194025702001454,140.1607599659983,0.18398453400004655,0
7058416616,2875120719,40,11.40772475400081,11.885536307998336,140.1607599659983,0.18398453400004655,0
282872944,1766015546,40,10.078280568000991,5.049063278000176,140.1607599659983,0.18398453400004655,0
4310529990,538212751,40,7.890621016998921,5.332185576000484,140.1607599659983,0.18398453400004655,0
314966937,564720099,40,8.117178405000232,5.826877389999936,140.1607599659983,0.18398453400004655,0
873784852,290274738,40,7.426244877000499,8.859019849000106,140.1607599659983,0.18398453400004655,0
4743046043,428732223,40,7.187503245000698,4.9577599320000445,140.1607599659983,0.18398453400004655,0
1923988641,468221645,40,5.331258350999633,7.22364430000016,140.1607599659983,0.18398453400004655,0
3320963963,2516120100,40,7.050629825000215,12.270979214001272,140.1607599659983,0.18398453400004655,0
288836651,954993219,40,4.741775325999697,6.6711424619988975,140.1607599659983,0.18398453400004655,0
282702835,5333031041,40,9.983751510999355,5.581034037999416,140.1607599659983,0.18398453400004655,0
3731324827,3256303951,40,8.954494895000607,4.551374898999711,140.1607599659983,0.18398453400004655,0
633414196,30961161,40,5.3059741360011685,12.255252290000499,140.1607599659983,0.18398453400004655,0
1087831308,1807624426,40,12.41103398100131,0.002427790999718127,140.1607599659983,0.18398453400004655,0
355270354,306444020,40,4.631711787998938,5.978285731998767,140.1607599659983,0.18398453400004655,0
5548761634,474805173,40,11.203283881999596,5.213089448998289,140.1607599659983,0.18398453400004655,0
471205900,388148543,40,4.880739379999795,10.705053762998432,140.1607599659983,0.18398453400004655,0
3847557289,275762505,40,14.593870423001135,7.225159994000933,140.1607599659983,0.18398453400004655,0
3273382842,2858933458,40,14.728522936000445,12.92103328200028,140.1607599659983,0.18398453400004655,0
278204771,345613334,40,13.25995432200034,4.230076709000059,140.1607599659983,0.18398453400004655,0
2875000500,277600718,40,12.830639238000003,8.854453502999604,140.1607599659983,0.18398453400004655,0
